Error at line 4: Binary expression 'AddExpr(DateType, DateType)' is not defined.
Error at line 5: Binary expression 'SubExpr(DateType, DateType)' is not defined.
Error at line 6: Binary expression 'MulExpr(DateType, DateType)' is not defined.
Error at line 7: Binary expression 'DivExpr(DateType, DateType)' is not defined.
Error at line 14: Unary expression 'LogNotExpr(DateType)' is not defined.